849702 75663 525
876697 690683 525
959347 223522 525
862112 757485 525
480606 53037 449
781564 874060 525
410337 913376 525
555801 643597 509
54701 769002 509
656122 658563 429
993596 35772 525
744795 61012 509
891965 967311 507
833348 287404 509
772566 359079 509
916560 87089 525
42733 864749 525
60971 338651 443
522778 861221 525
836345 523584 509
248239 765275 509
348209 664666 509
360597 755475 509
457679 66356 449
838667 683423 525
334882 561015 470
93226 505724 449
598852 687068 509
71003 994427 525
904572 713787 525
565490 310028 470
990318 995489 365
940637 670812 525
801608 72361 509
100658 781220 509
465231 378669 449
554318 634734 509
992482 305603 525
187536 544672 470
417390 429177 418
791372 981115 525
561798 559435 359
618886 220391 470
219116 372302 443
599339 872517 525
324801 19903 443
130876 557853 470
336178 93818 443
394258 438275 449
307763 266354 407
24038 531422 470
745437 460486 509
275291 548006 470
765250 768644 468
854776 922869 476
869991 403379 525
857329 639845 525
409180 654716 509
664699 901832 525
208925 274763 443
380187 332118 441
409238 629840 509
920971 755208 525
827900 799990 450
383611 700905 509
853191 106048 525
480465 139564 449
810314 520477 509
858782 250898 525
853840 273196 525
873957 725078 525
885786 469351 525
319304 880129 525
560132 404760 470
393736 366680 436
482726 808747 509
100670 376494 443
945321 337318 525
437305 722178 509
761243 220357 509
295590 715424 509
919892 242394 525
636631 629102 416
622754 451068 470
253290 820716 509
143248 358942 443
224317 62165 386
599352 663107 509
155834 736951 509
978283 433245 525
931588 741642 525
31664 923060 525
757476 76821 509
160740 212030 373
141193 476725 449
426770 643705 509
841625 819320 525
978635 602228 525
513120 203062 470
186748 395793 443
808532 884062 525
982233 947275 458
365100 659333 509
284418 217052 443
784869 840716 525
762346 460586 509
541657 932714 525
418101 677061 509
605470 273897 470
215971 384888 443
415726 654494 509
919618 584674 525
955808 192327 525
65408 363198 443
445129 604612 470
643 975617 525
864252 265905 525
868286 531326 525
68055 962823 525
336690 444329 449
265775 741970 509
243284 617120 470
735959 378798 509
211017 7115 383
826436 974258 525
109978 41649 354
475782 595182 470
626261 488328 470
485888 182557 449
114172 26812 354
154455 887066 525
910219 537748 525
976469 12765 525
209938 870429 525
777888 331744 509
418460 701783 509
784943 941330 525
368256 636619 509
707306 940045 525
156724 441437 449
827200 727375 468
378678 96713 443
620186 892554 525
18742 758578 509
604360 611075 403
676437 720570 504
864811 83283 525
525708 727927 509
426528 189428 449
82630 877883 525
706933 52914 509
513535 740175 509
81970 615281 470
877979 896898 445
730544 988426 525
525496 269987 470
584336 692985 509
601723 479623 470
66321 198929 383
815999 91959 509
709357 467855 509
119503 98609 354
296776 798072 509
806691 852261 525
322492 784058 509
337615 607448 470
163341 638377 509
681056 414751 509
876645 330982 525
591622 769139 509
395102 857011 525
286485 136197 443
173102 417715 449
436938 26622 449
740077 206782 509
12819 234946 443
927989 851925 476
965413 995583 458
623696 490540 470
258787 535329 470
722992 242182 509
914649 341867 525
422451 419901 356
427858 519480 470
49624 715884 509
89813 942056 525
282369 705985 509
995428 30284 525
655728 627117 416
801079 438351 509
389508 595810 470
78397 317842 443
465838 656513 509
425086 945325 525
407425 588762 470
389428 89606 443
548499 989797 525
630217 44908 509
142273 899379 525
831236 766369 468
366558 187777 443
810344 114140 509
668292 197973 509
722651 469563 509
593084 62760 470
243284 390534 441
119469 410733 449
129454 141940 344
347235 535128 470
145776 873027 525
647488 807402 504
238838 735139 509
290758 33643 443
617849 673644 509
394211 143172 443
687292 657060 442
392178 257160 441
962985 227018 525
264328 636065 509
134637 905127 525
606965 482213 470
169860 477030 449
12912 775741 509
921749 572614 525
540355 911048 525
122370 729677 509
198859 318925 443
656589 726136 504
580513 284711 470
28801 692270 509
933796 405723 525
524192 150723 470
481379 762916 509
677334 313275 509
427879 128079 449
326004 492510 449
60014 61826 335
890898 926035 476
661537 957185 525
225930 74194 386
988086 186677 525
972374 767189 525
107377 471112 449
958125 415688 525
595977 33585 470
85051 394209 443
477545 602767 470
663210 367810 509
452731 192684 449
413016 161087 449
